{
  "type": "mysql",
  "host": "localhost",
  "port": 3306,
  "username": "root",
  "password": "stone",
  "database": "mydb",
  "entities": [
    "entities: [__dirname + '/**/*.entity{.ts,.js}']"
  ],
  "synchronize": true
}